Mini-Project 2
…
#rm(contributions, committees)
joined_data <- committees %>%
   inner_join(contributions, by = "cmte_id")

We wanted to see if the states with more committees in our Committee Party Affiliation in Top Ten Electoral Vote States graph also had more transactions and contributions. So we merged the two datasets so that we could only look at the contributions for committees in our Committee graph to keep the data consistent and parallel.

contrib_data <- joined_data %>%
  filter( cmte_party_affiliation == c("DEM", "REP") )%>%
  filter( cmte_state == c("CA", "FL", "GA", "IL", "MI", "NC", "NJ", "NY", "OH", "PA", "TX")) %>%
  group_by( cmte_state, cmte_party_affiliation ) %>%
  summarise( n = sum(transaction_amt) )
contrib_data

## Source: local data frame [22 x 3]
## Groups: cmte_state [?]
## 
##    cmte_state cmte_party_affiliation      n
##         <chr>                  <chr>  <dbl>
## 1          CA                    DEM  79401
## 2          CA                    REP 136129
## 3          FL                    DEM  10092
## 4          FL                    REP  10000
## 5          GA                    DEM   1000
## 6          GA                    REP  15741
## 7          IL                    DEM  23250
## 8          IL                    REP  11376
## 9          MI                    DEM  11500
## 10         MI                    REP  15237
## # ... with 12 more rows
…
